<?xml version="1.0"?>

<svg version="1.1" xmlns="http://www.w3.org/2000/svg" xmlns:xlink="http://www.w3.org/1999/xlink" width="507.402191" height="1024.000000" viewBox="0 0 507.402191 1024.000000">

  <path d="M96.240601 614.400024C103.903000 504.829269,189.148117 409.600037,294.884354 409.600037C400.620590 409.600037,472.546738 504.829269,464.884338 614.400024C457.221954 723.970779,371.976837 819.200012,266.240601 819.200012C160.504364 819.200012,88.578217 723.970779,96.240601 614.400024" style="stroke:rgb(80.000305%,80.000305%,80.000305%); stroke-width: 2.000000;stroke-linejoin: round;stroke-miterlimit: 10.000000;fill: none;"></path>
</svg>
