<?xml version="1.0"?>

<svg version="1.1" xmlns="http://www.w3.org/2000/svg" xmlns:xlink="http://www.w3.org/1999/xlink" width="622.331573" height="1024.000000" viewBox="0 0 622.331573 1024.000000">

  <g transform="translate(417.763245 821.344757)" style="fill: rgb(0.000000%,0.000000%,0.000000%);">
    <text font-size="9.962646">vc</text>
  </g>
  <g transform="translate(320.915421 822.659271)" style="fill: rgb(0.000000%,0.000000%,0.000000%);">
    <text font-size="9.962646">bottom</text>
  </g>
  <g transform="translate(326.159668 821.690674)" style="fill: rgb(0.000000%,0.000000%,0.000000%);">
    <text font-size="9.962646">right</text>
  </g>
  <path d="M93.948547 436.056198C143.257217 284.302750,281.504669 173.989960,422.606216 219.837555C563.707764 265.685150,610.710068 436.190414,561.401398 587.943863C512.092728 739.697311,373.845276 850.010101,232.743729 804.162506C91.642181 758.314911,44.639877 587.809647,93.948547 436.056198" style="stroke:rgb(80.000305%,80.000305%,80.000305%); stroke-width: 2.000000;stroke-linejoin: round;stroke-miterlimit: 10.000000;fill: none;"></path>
</svg>
